{"showWarning":false,"pagination":{"totalRecords":11973,"currentPage":1,"totalPages":5987,"nextPage":true,"prevPage":false},"data":[{"ctNumber":"2023-509723-41-00","ctStatus":11,"ctTitle":"A Phase I Clinical Trial of CART cell therapy for refractory/ relapsed acute lymphoblastic leukemia with unmet needs in children, adolescents and young adults: feasibility and safety study (REALL_CART).","shortTitle":"REALL_ CART","conditions":"Refractory/ relapsed acute lymphoblastic leukemia in children, adolescents and young adults.","trialCountries":["Spain:11"],"decisionDateOverall":"07/05/2024","decisionDate":"ES: 07/05/2024","therapeuticAreas":["Diseases [C] - Neoplasms [C04]"],"sponsor":"Fundacion Para La Investigacion Biomedica Del Hospital Universitario La Paz","sponsorType":"Patient organisation/association","trialPhase":"Human Pharmacology (Phase I)-  Other","endPoint":"Expression of CD19/CD22 and NKG2DL on primary B- or T- cell ALL, respectively., Persistence of CART19/22 and CARTs-NKG2D cells in patients’ samples (peripheral blood, bone marrow, cerebrospinal fluid)., Peripheral blood cytokine profile from the patients’ serum., Identify the DNA methylation profile of NKG2DL (MICA, MICB AND ULBPs 1-3) in primary T-cell malignancies’ samples., Evaluate the presence of soluble NKG2DL and ANTI-MICA and ANTI-MICB antibodies in the serum of patients under CART-NKG2D therapy., Overall rate response in both arms.","product":"CART45RA-NKG2D CELLS, CART 19/22 T CELLS","ageRangeSecondary":[""],"ageGroup":"18-64 years, 0-17 years","gender":"Female, Male","trialRegion":1,"totalNumberEnrolled":"10","primaryEndPoint":"In this umbrella trial, we will determine in parallel within independent cohorts: 1- The safety and feasibility of autologous CART-19/22 in children, adolescents and young adults with a CD19+/- CD22+ relapse/ refractory disease for a r/r B-ALL. 2- The safety and feasibility of allogeneic CART-NKG2D T in children, adolescents and young adults with r/r T-ALL.","resultsFirstReceived":"No","lastUpdated":"07/05/2024","lastPublicationUpdate":"17/06/2024"},{"ctNumber":"2023-510220-72-00","ctStatus":2,"ctTitle":"PHARMACOLOGICAL STRATEGIES OF INHALED ANTIBIOTHERAPY IN BRONCHIECTASIS WITH CHRONIC BRONCHIAL INFECTION: BRONCHIPHARMA STUDY.","shortTitle":"BRONCHIPHARMA I","conditions":"Adult bronchiectasis","trialCountries":["Spain:2"],"decisionDateOverall":"03/06/2024","decisionDate":"ES: 03/06/2024","therapeuticAreas":["Diseases [C] - Respiratory Tract Diseases [C08]"],"sponsor":"Consorci Mar Parc De Salut De Barcelona","sponsorType":"Hospital/Clinic/Other health care facility","trialPhase":"Therapeutic use (Phase IV)","endPoint":"","product":"TOBRAMYCIN, Suero Fisiológico Braun 0,9% disolvente para uso parenteral Cloruro de sodio., COLISTIMETHATE SODIUM","ageRangeSecondary":["7","8"],"ageGroup":"65+ years, 18-64 years","gender":"Female, Male","trialRegion":1,"totalNumberEnrolled":"75","primaryEndPoint":"Number of colony forming units (CFU)","resultsFirstReceived":"No","lastUpdated":"03/06/2024","lastPublicationUpdate":"17/06/2024"}]}